632766 988157 525
247400 120165 443
578689 693886 509
938237 896296 476
320848 878943 525
916184 949657 507
508146 297362 449
131883 242800 443
134839 509540 449
836840 149174 509
236976 537555 470
755674 363879 509
692164 971500 525
753734 858664 525
799489 612181 509
62339 108919 354
354713 915617 525
737746 365733 509
335606 483476 449
907568 672069 525
563478 361024 470
903185 792592 525
41569 256615 443
186528 600690 470
754725 207373 509
336456 420213 449
768608 560968 509
340205 562181 470
953091 604324 525
228238 431773 449
584592 639604 509
34006 217144 386
892003 248987 525
273586 939129 525
617029 18089 470
909016 109378 525
469356 937376 525
628551 113286 509
487859 614600 470
762334 800843 468
446166 770275 509
964980 112119 525
259367 618147 470
792860 413278 509
27444 246749 443
160927 223841 386
412008 454848 418
907061 476301 525
278728 833559 509
371187 873979 525
680888 87228 509
225946 746632 509
723464 6859 509
179711 539919 470
888813 682891 525
358104 855196 525
118587 779793 509
566252 962611 525
487465 524639 470
402891 570190 470
457596 975737 525
477039 68947 449
123594 946924 525
880194 31570 525
559637 324737 470
841775 402744 525
623232 279797 470
377598 953234 525
842205 539975 525
223884 227904 368
884576 28822 525
402952 508594 449
780216 575463 509
946361 780854 525
699139 681600 442
348293 803033 509
704577 130420 509
893199 727467 525
341377 281087 389
172558 165410 352
762654 549761 509
446017 565650 470
639833 894284 525
654246 33137 509
714367 330876 509
554149 498744 470
558330 171877 470
623089 974550 525
321473 7533 443
978776 183359 525
446290 157037 449
425819 490899 444
805080 628204 504
120618 232487 443
882568 450708 525
440806 596225 470
135842 515047 470
36990 49022 314
623757 970902 525
605168 26038 470
872114 802648 525
402787 320786 441
775568 146630 509
46710 393025 443
446126 930891 525
168788 464234 449
801058 419233 509
724757 560188 509
974907 711414 525
259746 473891 449
150592 510697 449
20096 41336 324
930652 209412 525
79061 435844 449
804198 657066 504
278672 618713 470
724765 409551 509
342491 448493 449
34696 419899 449
998394 337814 525
603179 107979 470
461915 226194 449
928429 159142 525
528339 348205 470
480871 167114 449
8575 218391 386
215384 890266 525
404867 49185 443
364009 933309 525
451155 974400 525
195521 532234 470
384045 300116 441
21966 622398 470
564108 713032 509
297121 996817 525
72309 60769 335
663025 222358 509
618334 880995 525
76676 195618 383
667346 740128 504
367248 892821 525
192782 636481 509
757882 693312 504
115242 800631 509
479885 316749 449
50692 836768 509
898467 754609 525
623272 139636 470
314772 659917 509
876537 89902 525
607231 640254 509
452280 505049 444
979608 12318 525
77686 100145 338
970243 201542 525
700526 974140 525
345898 213652 443
845538 133586 525
439644 400638 449
607994 621123 447
455419 325973 449
786337 218837 509
425296 594678 470
344515 350747 441
22482 674808 509
956179 749930 525
845395 824819 525
360189 937972 525
57577 476725 449
858271 326299 525
334556 34116 443
261788 767945 509
281080 952325 525
256417 158623 443
506404 747640 509
620469 235088 470
952515 990994 458
948204 354885 525
772784 591949 509
368072 63803 443
153966 787525 509
538564 326113 470
187976 540587 470
543286 825161 509
776608 177359 509
4534 210864 383
87721 202048 383
461127 410003 449
83646 966544 525
773437 591892 509
687661 118151 509
744160 199844 509
750279 289142 509
905345 224827 525
806160 306814 509
351848 704014 509
283713 608757 470
331222 555878 470
611971 259813 470
469000 277989 449
831590 967826 525
75884 873902 525
557516 367956 470
271252 347566 441
628496 711293 504
200901 372471 443
904381 521524 525
761697 609906 509
957089 174738 525
904557 412465 525
253107 948300 525
216306 157551 373
110982 315008 443
136533 702876 509
607163 224017 470
300693 677688 509
782725 782752 225
675462 11153 509
374905 764766 509
732077 542836 509
1115 377493 443
607711 164305 470
898350 751163 525
840765 899772 445
376553 856516 525
98710 73576 351
563282 759933 509
678881 306606 509
997578 68386 525
555426 260031 470
315985 342478 384
78248 755597 509
342326 160033 443
974623 807532 525
432429 179803 449
957479 462380 525
309268 682577 509
707657 960792 525
102778 804433 509
923939 652284 525
320232 28809 443
455847 570876 470
353825 103292 443
917574 714239 525
496178 462436 426
708819 585217 509
27030 971196 525
604277 491174 470
677055 641864 442
101269 305643 443
