723165 659397 504
261696 289049 407
457828 176871 449
436068 864158 525
304652 492010 449
546513 431100 470
293199 749847 509
657680 617373 509
827206 494380 509
417408 177090 449
908971 191498 525
749469 820541 468
196809 240715 443
960960 242903 525
210898 606194 470
947381 162498 525
547834 187499 470
104832 8216 351
52213 906353 525
457790 160803 449
101678 392947 443
832953 185400 509
133459 135423 344
787377 119035 509
947535 398788 525
58080 925554 525
885935 272307 525
1540 831123 509
829348 145274 509
588839 950595 525
560986 792464 509
952500 412327 525
989234 283641 525
501735 610213 470
878999 647903 525
133474 447251 449
516527 385053 470
473491 63431 449
962021 433842 525
542726 283369 470
897435 780206 525
726292 601779 509
294657 824546 509
843323 582896 525
405874 849496 525
502553 838157 525
625257 661773 509
549520 359218 470
186480 168799 365
250721 350128 441
923889 309639 525
891561 848783 445
847306 917040 476
324344 312922 371
724323 683020 504
587192 792920 509
687341 134234 509
884818 400557 525
364831 630151 509
15361 446348 449
950719 346522 525
26579 310538 443
27664 716705 509
593278 123358 470
243936 44758 443
472889 307034 449
82713 607331 470
909461 549064 525
118159 625243 470
934239 568620 525
371327 665478 509
248710 930797 525
481908 294048 449
728220 566570 509
398802 587727 470
733770 388508 509
645046 208400 509
466736 469592 413
106459 902081 525
844467 216663 525
440876 947234 525
665192 65081 509
783456 633331 504
451387 622989 470
176186 301977 443
657381 326672 509
184920 234339 443
859659 425207 525
488906 975568 525
697589 556694 509
692358 758857 504
349463 447504 449
154195 234065 443
852360 649026 525
12315 910342 525
836166 726982 468
994775 830242 525
751583 26397 509
906758 407908 525
285742 267848 407
905899 617718 525
278553 152838 443
67440 10572 340
873358 421579 525
961373 541180 525
381853 69951 443
537853 604474 452
969488 194528 525
35421 88732 351
153693 552163 470
640875 238963 509
976148 34156 525
64939 803129 509
191925 592332 470
697241 977168 525
761371 966095 525
256861 222116 443
547084 206194 470
488163 317720 449
212016 22172 383
384123 258155 441
335278 678042 509
465194 583366 470
679252 498988 509
121189 410981 449
508785 194793 449
382007 404168 436
111863 715373 509
321295 277644 389
875648 421148 525
190976 896703 525
549539 500005 470
263477 974897 525
236001 839716 525
299017 355617 441
424888 546603 470
747467 245817 509
733533 944016 525
151535 743279 509
980813 433856 525
987302 967125 458
132748 359335 443
337169 100280 443
731925 369815 509
531354 775704 509
571657 538046 452
97644 938910 525
636408 946300 525
709173 518407 509
466039 116300 449
752074 330792 509
867733 408185 525
937959 786951 525
977985 546562 525
403091 563689 470
84758 517876 470
965992 540407 525
985098 670548 525
422568 100887 449
537723 248442 470
464063 361564 449
386791 731078 509
127175 898112 525
881528 763160 525
271594 787004 509
407799 433732 449
240292 886040 525
717634 58616 509
628884 880628 525
331382 618704 470
590918 563621 434
457703 966682 525
288671 282212 389
706750 660301 504
433722 382400 449
858027 276062 525
878621 175206 525
673159 355158 509
441911 483410 444
338617 283236 389
494831 906631 525
709891 350761 509
617656 676919 509
676805 164331 509
7315 157483 383
82980 104788 341
103199 80738 341
588481 47238 470
647859 125336 509
630241 288020 509
647085 977316 525
38109 265552 443
416164 350824 449
891478 409201 525
871235 612082 525
758848 609043 509
740181 485410 509
777766 437908 509
283445 861790 525
636897 563654 509
177802 500058 449
993379 59705 525
724079 677423 504
908295 318009 525
182856 524994 470
888821 350929 525
14739 77139 351
735263 764476 424
29569 655633 509
771911 160588 509
881487 774403 525
76858 846321 525
966171 792528 525
432796 699740 509
179791 597630 470
659801 813368 504
160627 451349 449
971386 181981 525
305726 705328 509
209929 722713 509
154841 284743 443
521008 77213 470
350557 21191 443
145108 59759 375
505619 160849 449
124393 904172 525
665147 102351 509
707621 838577 525
92031 908688 525
249309 322623 407
961452 451886 525
501981 177368 449
201450 86917 383
363256 772397 509
502695 217984 449
132509 388656 443
84182 736878 509
480092 147924 449
738446 610099 509
719232 613656 509
669312 926801 525
394631 632190 509
137442 949157 525
60049 598732 470
407368 695671 509
830328 9354 509
434646 5527 449
229079 24299 386
567238 806290 509
812855 290866 509
